-0.00971591 -0 -0.00971591 -0.00971591 -0.00971591 -4.67383e-07 -0 -0.00971591 -0.00971591 -4.40031e-12 -0 -6.07736e-13 -0 -0.00971591 -0.00971591 -0.00971591 -0.00971591 -5.66744e-08 -0.00971591 -0.00971591 -2.09082e-06 -0.00971591 -0.00971591 -0.00971591 -0.00971591 -0.00971591 -4.40324e-07 -6.11188e-06 -0.00971591 -0.00971591 
-2.26234e-10 -9.36092e-11 -0 -4.1371e-10 -1.55282e-09 -5.57207e-11 -5.65131e-12 -4.08775e-10 -0 -7.01156e-12 -5.53e-09 -1.27676e-15 -3.1033e-12 -1.21381e-09 -3.66374e-14 -0 -6.9375e-11 -1.00256e-10 -0 -1.66533e-16 -2.24853e-11 -1.60613e-10 -5.31462e-11 -1.553e-11 -1.75021e-12 -1.84669e-12 -2.22045e-16 -6.87783e-14 -3.08581e-12 -0 
-4.52116e-12 -1.05471e-15 -1.31611e-12 -8.0721e-12 -1.92568e-13 -3.57492e-14 -7.60503e-14 -1.33084e-11 -5.65786e-12 -4.72279e-11 -3.0225e-11 -1.65444e-11 -2.22045e-16 -3.05077e-11 -3.72052e-12 -3.84137e-14 -6.82787e-15 -1.66755e-13 -1.57541e-13 -3.56121e-12 -2.0306e-13 -0 -3.91354e-13 -4.70907e-12 -2.05766e-10 -0 -2.09333e-13 -6.4948e-15 -1.07747e-13 -7.42573e-13 
-2.58617e-07 -0.000161361 -2.37571e-05 -0.000435594 -1.94768e-05 -1.08791e-05 -8.39471e-06 -4.15722e-06 -8.52401e-07 -8.48216e-05 -4.01265e-06 -3.62389e-05 -5.74164e-06 -0.000139216 -5.60176e-05 -3.00605e-05 -1.54385e-07 -7.91175e-07 -2.62989e-05 -2.90308e-07 -6.81678e-07 -9.00166e-05 -3.70705e-05 -7.30997e-05 -1.78332e-06 -1.00012e-05 -2.56071e-06 -1.2591e-05 -2.46825e-07 -0.000162516 
-0.00971591 -0.00971591 -1.99945e-06 -0.00971591 -0.00971591 -3.37387e-07 -0.00971591 -0.00971591 -0.00971591 -0.00971591 -5.87873e-06 -0.00971591 -0.00171227 -0.00971591 -2.38596e-10 -4.85398e-08 -0.00971591 -0.00971591 -0 -0.00971591 -0.00971591 -6.47462e-07 -0 -0.00971591 -0.00971591 -0.00971591 -0.00971591 -0 -0.00971591 -0.00971591 
-4.87388e-14 -0 -3.05977e-13 -3.76776e-12 -2.22045e-16 -0 -1.95722e-11 -1.29896e-14 -1.00475e-12 -9.71445e-15 -0 -0 -5.26246e-14 -1.27726e-12 -1.40611e-10 -0 -0 -0 -2.92503e-11 -7.69977e-11 -7.49623e-13 -0 -3.01537e-13 -1.401e-10 -8.9373e-15 -5.55112e-17 -0 -8.4468e-12 -2.4703e-12 -1.97781e-12 
-1.59945e-10 -6.91933e-11 -1.18794e-13 -3.3809e-11 -4.2305e-13 -2.79776e-14 -7.43849e-15 -5.58073e-11 -3.13527e-13 -3.87401e-12 -3.55845e-11 -1.38778e-15 -3.10862e-15 -0 -1.42664e-14 -6.88338e-14 -1.11022e-16 -1.09274e-12 -1.18498e-10 -3.81584e-12 -1.72612e-12 -8.47055e-11 -0 -1.47776e-12 -3.32512e-14 -3.51563e-12 -0 -4.18823e-11 -1.16573e-15 -0 
-3.28185e-06 -3.19632e-05 -8.7281e-05 -6.93336e-06 -0.000171468 -1.78853e-05 -0.00028545 -5.16056e-06 -2.6533e-06 -1.44761e-05 -1.2082e-05 -1.67083e-06 -4.95901e-07 -6.45421e-07 -0.000125345 -2.03788e-05 -2.52142e-06 -0.000114186 -8.285e-05 -2.10573e-05 -8.50546e-07 -2.38122e-05 -1.52211e-05 -0.00016493 -8.95179e-06 -0.000148846 -1.91785e-05 -6.88536e-05 -2.11735e-06 -1.54844e-05 
-0.00971591 -7.30742e-07 -0.00971591 -3.58482e-06 -0 -0.00971591 -0.00971591 -0.00971591 -0.00971591 -0.00971591 -1.00568e-08 -0.00971591 -0.00971591 -8.18566e-09 -0.00971591 -0.00971591 -0.00971591 -0.00971591 -0.00971591 -8.88333e-09 -2.84776e-08 -2.20556e-08 -8.20823e-09 -4.84686e-11 -0 -3.25351e-13 -0.00971591 -0 -6.62415e-06 -7.47797e-10 
-3.9635e-12 -0 -0 -5.71876e-13 -0 -2.67564e-14 -1.70919e-12 -0.00971591 -1.46993e-11 -0 -4.77396e-15 -1.34308e-11 -0 -2.22045e-15 -3.33067e-16 -1.31704e-09 -0 -4.29395e-08 -6.82787e-15 -0 -6.23713e-10 -3.03119e-11 -3.20495e-11 -7.50425e-10 -3.30537e-10 -8.73892e-10 -3.8145e-10 -0 -4.51245e-12 -1.6703e-11 
-9.07829e-10 -9.69391e-13 -2.26844e-09 -4.996e-16 -5.55112e-17 -6.3588e-13 -5.22971e-13 -3.61489e-13 -8.88178e-16 -3.47389e-12 -1.76115e-12 -1.18888e-12 -7.79321e-13 -1.56675e-12 -7.64389e-14 -0 -3.33272e-12 -5.61218e-14 -4.31299e-12 -3.74145e-14 -1.48093e-11 -7.27141e-13 -4.87055e-13 -2.10205e-11 -6.62579e-11 -0 -1.46551e-11 -2.22045e-15 -1.44081e-10 -5.6099e-12 
-2.92567e-05 -0.00017092 -0.000281728 -2.58883e-05 -5.79574e-06 -0.000829565 -6.78501e-05 -1.93514e-05 -7.88726e-05 -0.000404388 -8.00889e-05 -5.54444e-05 -0.000414472 -0.000451188 -0.000190197 -3.59623e-06 -8.44524e-05 -2.59278e-05 -0.0001579 -3.81097e-05 -9.94308e-05 -3.94757e-06 -5.62789e-06 -0.000125958 -8.44598e-05 -0.000157918 -1.65837e-05 -1.42167e-05 -4.26118e-05 -3.19768e-06 
-0.00971591 -6.06144e-08 -0.00971591 -0.00971591 -0.00971591 -0.00971591 -0.00971591 -5.21891e-07 -8.81961e-13 -2.43625e-11 -5.38106e-07 -4.52617e-08 -8.4044e-09 -4.15038e-10 -8.72672e-11 -0.00971591 -5.78948e-09 -0 -1.11041e-07 -0.00971591 -1.67407e-05 -2.14572e-09 -2.26167e-08 -0.00971591 -4.01734e-13 -0 -0.00971591 -0.00971591 -0.00971591 -7.02959e-07 
-7.02344e-12 -0 -0.00971591 -0 -4.50648e-11 -1.12092e-09 -3.02197e-10 -3.79626e-10 -5.32506e-11 -8.9988e-10 -0 -3.1275e-12 -1.44329e-15 -6.97156e-11 -5.55112e-17 -3.08092e-11 -4.04292e-10 -0 -0 -4.38765e-09 -1.38488e-09 -0 -5.55112e-17 -0 -0 -1.31006e-14 -2.40484e-11 -3.49806e-11 -1.58774e-10 -0 
-0 -0 -3.84137e-14 -0 -0 -0 -0 -0 -0 -0 -0 -7.31026e-13 -1.66533e-16 -0 -0 -1.41109e-12 -0 -3.88578e-16 -8.71525e-15 -0 -5.69889e-12 -1.43274e-13 -0 -1.34337e-14 -2.77556e-15 -5.55112e-17 -6.61138e-14 -1.53616e-12 -4.27436e-15 -0 
-1.05103e-05 -9.56117e-05 -1.8225e-05 -3.57404e-05 -6.76924e-06 -0.000189898 -1.18475e-05 -3.92756e-05 -3.21233e-05 -0.000261348 -3.04837e-05 -5.42008e-05 -0.000172459 -2.5553e-05 -5.74116e-05 -0.000104766 -4.38832e-05 -2.48608e-07 -0.00023737 -0.000121149 -0.00031065 -0.00021207 -5.45553e-05 -0.000152454 -3.7928e-05 -0.000205942 -8.36588e-05 -0.000146186 -4.2654e-05 -1.10775e-05 
